data_wrangler
…
df[["density"]] <-df$population/df$area
colnames(df)

 [1] "country"        "population"     "area"           "govt_form"     
 [5] "birthrate"      "deathrate"      "life_expect"    "mammals"       
 [9] "birds"          "reptiles"       "amphibians"     "fishes"        
[13] "mollucs"        "other_inverts"  "plants"         "fungi_protists"
[17] "density"       

v <-sort(df$density, decreasing = TRUE)
arr <- arrange(df, desc(density))
arr

# A tibble: 248 × 17
   country   population   area govt_form birthrate deathrate life_expect mammals
   <chr>          <dbl>  <dbl> <chr>         <dbl>     <dbl>       <dbl>   <dbl>
 1 Macau         592731   28   special …       8.9       4.2        84.5       0
 2 Monaco         30535    2   constitu…       6.7       9.2        89.5       3
 3 Holy See…        842    0.1 monarchy       NA        NA          NA         1
 4 Singapore    5674472  697   republic        8.3       3.4        84.7      13
 5 Hong Kong    7141106 1108   special …       9.2       7.1        82.9       3
 6 Gibraltar      29258    7   British …      14.1       8.4        79.3       4
 7 Bahrain      1346613  760   constitu…      13.7       2.7        78.7       3
 8 Maldives      393253  298   republic       15.8       3.9        75.4       2
 9 Malta         413965  316   republic       10.2       9.1        80.2       2
10 Bermuda        70196   54   British …      11.3       8.2        81.2       4
# ℹ 238 more rows
# ℹ 9 more variables: birds <dbl>, reptiles <dbl>, amphibians <dbl>,
#   fishes <dbl>, mollucs <dbl>, other_inverts <dbl>, plants <dbl>,
#   fungi_protists <dbl>, density <dbl>
…
